module kezbek

go 1.19

require (
	github.com/gofiber/fiber/v2 v2.41.0
	github.com/joho/godotenv v1.4.0
	github.com/prometheus/client_golang v1.12.2
	github.com/shopspring/decimal v1.3.1
	github.com/stretchr/testify v1.8.1
	github.com/swaggo/fiber-swagger v1.3.0
	github.com/swaggo/swag v1.8.1
	github.com/thoas/go-funk v0.9.3
	go.uber.org/zap v1.24.0
	gorm.io/driver/postgres v1.4.6
	gorm.io/gorm v1.24.3
)

require (
	github.com/KyleBanks/depth v1.2.1 // indirect
	github.com/andybalholm/brotli v1.0.4 // indirect
	github.com/beorn7/perks v1.0.1 // indirect
	github.com/cespare/xxhash/v2 v2.1.2 // indirect
	github.com/davecgh/go-spew v1.1.1 // indirect
	github.com/go-openapi/jsonpointer v0.19.6 // indirect
	github.com/go-openapi/jsonreference v0.20.1 // indirect
	github.com/go-openapi/spec v0.20.7 // indirect
	github.com/go-openapi/swag v0.22.3 // indirect
	github.com/golang/protobuf v1.5.2 // indirect
	github.com/google/go-cmp v0.5.8 // indirect
	github.com/jackc/pgpassfile v1.0.0 // indirect
	github.com/jackc/pgservicefile v0.0.0-20221227161230-091c0ba34f0a // indirect
	github.com/jackc/pgx/v5 v5.2.0 // indirect
	github.com/jinzhu/inflection v1.0.0 // indirect
	github.com/jinzhu/now v1.1.5 // indirect
	github.com/josharian/intern v1.0.0 // indirect
	github.com/klauspost/compress v1.15.14 // indirect
	github.com/mailru/easyjson v0.7.7 // indirect
	github.com/mattn/go-colorable v0.1.13 // indirect
	github.com/mattn/go-isatty v0.0.17 // indirect
	github.com/mattn/go-runewidth v0.0.14 // indirect
	github.com/matttproud/golang_protobuf_extensions v1.0.1 // indirect
	github.com/pmezard/go-difflib v1.0.0 // indirect
	github.com/prometheus/client_model v0.2.0 // indirect
	github.com/prometheus/common v0.32.1 // indirect
	github.com/prometheus/procfs v0.7.3 // indirect
	github.com/rivo/uniseg v0.4.3 // indirect
	github.com/stretchr/objx v0.5.0 // indirect
	github.com/swaggo/files v1.0.0 // indirect
	github.com/valyala/bytebufferpool v1.0.0 // indirect
	github.com/valyala/fasthttp v1.43.0 // indirect
	github.com/valyala/tcplisten v1.0.0 // indirect
	go.uber.org/atomic v1.10.0 // indirect
	go.uber.org/multierr v1.9.0 // indirect
	golang.org/x/crypto v0.4.0 // indirect
	golang.org/x/net v0.5.0 // indirect
	golang.org/x/sys v0.4.0 // indirect
	golang.org/x/text v0.6.0 // indirect
	golang.org/x/tools v0.5.0 // indirect
	google.golang.org/protobuf v1.26.0 // indirect
	gopkg.in/yaml.v3 v3.0.1 // indirect
)
